\relax 
\ifx\hyper@anchor\@undefined
\global \let \oldcontentsline\contentsline
\gdef \contentsline#1#2#3#4{\oldcontentsline{#1}{#2}{#3}}
\global \let \oldnewlabel\newlabel
\gdef \newlabel#1#2{\newlabelxx{#1}#2}
\gdef \newlabelxx#1#2#3#4#5#6{\oldnewlabel{#1}{{#2}{#3}}}
\AtEndDocument{\let \contentsline\oldcontentsline
\let \newlabel\oldnewlabel}
\else
\global \let \hyper@last\relax 
\fi

\select@language{english}
\@writefile{toc}{\select@language{english}}
\@writefile{lof}{\select@language{english}}
\@writefile{lot}{\select@language{english}}
\select@language{english}
\@writefile{toc}{\select@language{english}}
\@writefile{lof}{\select@language{english}}
\@writefile{lot}{\select@language{english}}
\@writefile{toc}{\contentsline {section}{\numberline {1}Task 1}{2}{section.1}}
\@writefile{toc}{\contentsline {subsection}{\numberline {1.1}Parser}{2}{subsection.1.1}}
\@writefile{toc}{\contentsline {subsection}{\numberline {1.2}lexer}{2}{subsection.1.2}}
\@writefile{toc}{\contentsline {subsection}{\numberline {1.3}Interpreter}{3}{subsection.1.3}}
\@writefile{toc}{\contentsline {subsection}{\numberline {1.4}Type checker}{3}{subsection.1.4}}
\@writefile{toc}{\contentsline {subsection}{\numberline {1.5}Code generator}{3}{subsection.1.5}}
\@writefile{toc}{\contentsline {subsection}{\numberline {1.6}Test}{3}{subsection.1.6}}
\@writefile{toc}{\contentsline {section}{\numberline {2}Task 2}{4}{section.2}}
\@writefile{toc}{\contentsline {subsection}{\numberline {2.1}Parser}{4}{subsection.2.1}}
\@writefile{toc}{\contentsline {subsection}{\numberline {2.2}Lexer}{4}{subsection.2.2}}
\@writefile{toc}{\contentsline {subsection}{\numberline {2.3}Type checker}{4}{subsection.2.3}}
\@writefile{toc}{\contentsline {subsection}{\numberline {2.4}Interpreter}{5}{subsection.2.4}}
\@writefile{toc}{\contentsline {subsection}{\numberline {2.5}Code Generator}{5}{subsection.2.5}}
\@writefile{toc}{\contentsline {subsection}{\numberline {2.6}Tests}{7}{subsection.2.6}}
\@writefile{toc}{\contentsline {section}{\numberline {3}Task 3}{7}{section.3}}
\@writefile{toc}{\contentsline {subsection}{\numberline {3.1}Parser}{7}{subsection.3.1}}
\@writefile{toc}{\contentsline {subsection}{\numberline {3.2}Lexer}{7}{subsection.3.2}}
\@writefile{toc}{\contentsline {subsection}{\numberline {3.3}Type Checker}{7}{subsection.3.3}}
\@writefile{toc}{\contentsline {subsection}{\numberline {3.4}Interpreter}{8}{subsection.3.4}}
\@writefile{toc}{\contentsline {subsection}{\numberline {3.5}Code Generator}{8}{subsection.3.5}}
\@writefile{toc}{\contentsline {section}{\numberline {4}Task 4}{8}{section.4}}
\@writefile{toc}{\contentsline {subsection}{\numberline {4.1}Test}{9}{subsection.4.1}}
